80
80
16
14
16
15
14
15
14
15
16
16
20
16
14
16
14
16
16
16
14
15
13
15
15
18
14
14
14
14
15
17
13
18
15
16
15
14
16
16
16
14
14
16
13
15
14
17
17
14
16
16
18
16
16
16
15
15
15
15
16
14
15
14
14
16
15
13
17
15
18
15
15
12
14
18
18
16
14
18
14
17
14
16
14
15
15
15
18
15
15
14
16
14
16
15
18
14
16
13
14
14
13
14
14
14
14
15
15
14
16
14
17
14
18
15
15
13
14
14
14
15
18
13
13
14
15
14
18
16
14
14
16
14
16
14
15
15
15
14
19
14
15
15
16
17
15
16
13
14
16
15
16
17
14
13
13
14
14
16
13
16
16
14
16
16
16
18
16
14
12
15
14
15
16
15
16
18
14
14
14
13
17
13
15
17
15
15
16
16
15
13
14
15
16
15
14
14
13
17
14
15
17
15
14
17
17
15
16
17
14
16
15
14
14
16
16
18
16
13
15
14
13
14
14
14
15
16
18
16
18
15
16
13
14
14
16
15
14
14
18
13
13
15
15
15
16
16
16
14
16
18
14
13
16
17
13
14
16
14
14
17
15
14
15
15
13
13
16
15
18
14
14
14
14
16
14
14
17
14
15
15
14
14
15
14
13
16
14
15
15
14
16
14
15
16
15
17
14
13
16
12
16
17
14
16
16
16
16
13
15
18
16
15
14
16
16
15
18
13
18
14
16
14
18
14
18
21
16
14
19
16
13
15
13
16
16
14
15
13
15
13
14
13
15
16
18
15
18
17
14
15
16
16
14
15
14
18
14
15
16
15
12
13
16
13
13
13
15
18
14
14
13
14
18
14
14
13
17
14
14
16
14
16
13
13
13
15
13
14
13
17
14
12
14
14
12
14
15
14
14
17
14
14
17
15
18
15
13
14
16
14
14
13
15
18
16
18
16
15
16
17
15
17
16
18
17
15
15
14
15
15
13
16
14
14
15
16
16
14
14
18
15
13
15
17
16
18
14
15
14
14
14
15
13
14
14
16
17
15
14
13
14
16
16
14
16
16
12
12
18
15
15
14
13
18
14
18
13
18
14
15
16
16
16
16
14
14
14
16
15
16
14
15
11
13
15
14
14
16
17
13
15
13
14
14
14
16
17
16
15
17
14
14
15
15
16
15
15
13
13
15
16
15
17
17
16
16
16
14
15
15
12
14
14
15
14
13
14
14
14
15
15
15
17
14
13
15
14
14
16
14
17
14
13
17
17
14
14
14
15
16
16
14
16
18
15
14
16
17
15
16
14
14
12
14
14
15
14
16
15
16
14
15
15
15
15
15
18
16
16
16
15
14
14
15
14
16
17
14
14
14
14
15
15
15
18
14
16
15
17
14
14
14
16
15
16
16
13
14
16
16
14
14
14
17
16
17
14
14
14
15
16
13
16
14
16
16
15
16
16
17
16
13
14
14
16
15
15
16
13
15
15
13
15
14
20
16
15
14
16
16
18
18
13
14
13
14
13
14
15
14
13
15
14
12
15
16
14
14
15
15
15
13
14
15
15
13
16
11
14
14
15
15
13
16
15
14
15
12
14
15
14
17
14
14
17
13
12
14
18
16
14
13
14
15
14
16
14
16
15
15
16
17
15
14
15
15
16
16
17
14
14
17
16
14
15
16
14
17
16
17
11
15
17
14
17
16
18
18
16
14
15
15
14
16
14
15
14
15
16
16
15
13
15
16
15
14
14
14
17
16
15
17
14
15
14
14
17
15
18
14
16
14
15
13
15
13
16
16
15
15
14
14
14
14
18
15
16
18
16
14
18
14
15
16
14
16
18
13
13
16
12
15
13
15
16
17
16
13
14
15
15
12
14
13
15
13
16
15
18
16
14
15
16
14
14
17
15
16
14
17
14
13
15
13
14
14
15
16
15
16
14
15
14
15
15
14
14
14
17
13
17
18
16
16
16
13
14
16
16
13
15
14
17
17
13
16
17
16
14
17
14
17
14
14
17
14
13
17
15
15
14
17
13
12
15
15
12
16
16
15
13
16
16
15
17
16
17
14
16
14
14
14
15
16
15
15
16
14
16
16
14
16
16
14
14
15
15
14
15
14
13
15
17
15
13
15
14
14
15
16
14
21
18
13
17
16
14
19
14
17
15
13
13
15
18
17
16
16
16
14
14
18
16
16
15
17
16
15
16
14
17
16
15
16
16
15
18
16
18
15
17
16
14
15
16
16
15
15
16
14
18
15
14
16
17
12
14
15
15
14
17
13
16
15
16
18
14
16
14
15
15
14
15
15
16
14
14
13
16
14
16
14
15
15
16
14
14
15
17
14
14
14
16
14
13
15
17
16
14
15
15
14
17
13
18
14
14
16
16
14
15
14
14
13
17
14
15
16
16
14
14
16
17
17
16
15
16
16
15
14
15
15
15
14
17
15
15
14
17
18
17
16
14
15
16
15
15
16
14
13
16
16
16
16
14
16
15
13
16
14
17
14
15
18
16
13
13
17
16
14
18
15
14
14
15
17
16
15
16
15
17
16
18
16
14
14
16
15
14
16
15
14
17
16
15
14
16
14
17
14
18
15
14
14
15
15
14
17
12
14
15
16
14
16
15
18
18
16
15
16
14
16
14
14
16
16
14
14
16
16
14
14
18
14
15
17
16
14
14
13
15
14
18
15
12
19
16
17
15
13
15
16
18
15
14
15
18
16
16
15
14
12
14
15
15
14
15
14
17
18
16
15
15
14
14
15
16
16
15
14
15
15
15
15
13
15
12
18
16
17
16
15
16
13
14
15
13
16
16
14
14
17
14
13
14
16
15
13
15
15
16
15
15
16
15
16
13
16
14
13
14
14
13
16
14
15
18
14
12
14
14
14
17
12
15
13
15
18
14
12
16
15
16
14
14
18
14
15
15
17
15
16
20
16
18
15
13
15
14
12
16
16
14
18
14
14
14
16
14
17
14
16
15
15
16
14
15
14
15
14
15
15
14
18
16
15
15
17
15
16
13
17
14
14
17
16
15
14
14
14
18
13
14
16
16
15
16
15
14
18
15
16
13
16
19
16
17
15
13
15
16
18
14
16
18
16
18
18
16
13
17
14
15
17
16
16
16
16
16
18
14
14
14
16
14
16
15
15
16
15
14
14
17
16
16
15
16
16
14
17
13
16
16
15
13
15
18
16
16
18
17
14
16
15
16
16
16
14
16
14
16
15
14
14
16
15
15
16
16
15
14
17
14
18
12
15
13
17
11
16
15
14
16
16
19
16
15
18
14
14
14
14
14
16
15
16
14
14
15
15
18
17
15
15
16
16
14
17
15
19
16
15
15
15
14
16
17
16
14
14
16
14
16
16
17
13
17
16
17
16
14
15
16
14
14
18
16
14
14
18
17
16
14
14
15
15
16
14
13
15
18
11
16
16
14
14
16
16
14
16
15
15
16
16
15
18
20
14
15
14
16
17
17
14
13
16
18
15
16
17
24
18
18
15
14
15
14
14
17
19
14
18
17
15
14
16
18
16
14
16
17
16
16
14
15
14
15
14
18
14
15
17
15
16
15
16
12
15
17
15
14
13
16
16
15
16
14
16
13
16
16
14
14
11
13
16
14
16
17
14
16
14
17
18
20
17
15
16
14
15
17
17
14
15
17
17
17
17
18
23
20
16
18
16
16
19
15
17
15
13
19
14
17
16
16
15
15
16
14
15
17
13
16
16
16
15
16
15
14
15
16
18
15
14
15
18
16
13
14
15
16
15
15
18
15
18
17
16
17
16
14
15
16
16
17
16
16
15
19
16
16
16
16
16
16
17
14
16
14
14
17
17
15
14
16
19
18
27
32
26
25
22
15
19
16
16
14
14
14
14
13
16
16
16
14
15
15
15
16
16
14
13
14
15
16
14
17
15
15
14
17
14
16
17
15
16
15
14
16
17
15
15
17
17
14
16
16
16
14
16
15
14
15
13
14
18
14
17
16
15
16
16
18
15
21
14
14
16
15
16
16
17
15
16
22
19
22
18
25
28
27
17
16
14
16
17
16
14
15
15
18
18
15
17
16
15
15
13
12
12
15
15
15
18
15
18
16
15
14
16
18
16
18
14
16
16
15
17
16
17
16
20
17
21
33
32
30
22
16
16
16
15
19
16
13
16
16
16
14
15
18
18
21
20
18
17
15
15
14
15
18
18
19
17
25
27
19
18
34
23
18
20
13
14
16
14
15
17
16
19
17
16
16
16
16
12
15
15
14
16
15
15
16
15
16
16
18
16
14
18
16
18
18
18
21
20
18
23
22
27
23
34
21
37
27
34
37
34
30
27
21
18
17
17
15
16
18
14
16
18
18
23
18
21
27
15
16
14
17
21
23
18
14
29
19
18
26
29
19
17
16
18
17
16
15
14
16
15
16
16
17
14
14
13
16
16
14
14
16
16
14
17
15
16
16
15
17
14
15
16
16
23
20
24
22
28
23
26
31
33
38
30
30
35
32
27
24
27
25
30
29
21
15
14
16
16
16
14
15
14
25
19
23
19
18
17
15
18
16
19
19
21
27
17
20
18
27
21
16
20
23
23
22
17
21
16
15
18
20
18
17
16
18
15
16
19
19
18
18
17
13
18
13
15
16
16
15
15
15
16
19
27
25
27
30
30
34
26
26
32
39
34
27
30
37
42
29
36
32
32
23
32
25
15
16
14
16
16
18
19
27
25
23
18
21
18
18
16
17
18
20
30
27
18
26
19
19
21
25
23
24
30
25
20
15
16
13
16
17
16
16
19
15
20
16
13
15
15
14
15
16
15
16
15
16
15
14
14
16
17
18
17
27
29
28
35
26
25
24
29
31
19
28
30
27
31
23
26
26
41
30
26
20
16
17
17
22
20
17
18
24
32
35
22
17
18
15
25
24
22
25
36
30
26
23
26
38
25
32
17
17
22
23
18
16
17
17
18
14
18
15
14
18
17
16
18
16
16
14
14
16
14
17
14
15
15
14
17
17
16
14
15
18
19
23
39
32
36
25
37
31
31
32
30
32
27
26
24
32
33
34
30
22
22
20
15
21
29
25
21
38
26
25
34
31
21
30
41
31
21
24
20
24
23
30
38
30
34
22
20
20
18
27
27
15
16
15
15
16
14
16
17
14
14
16
16
14
16
16
14
15
17
18
15
14
14
16
15
16
13
15
15
20
22
27
27
22
27
31
33
25
28
31
46
39
27
26
19
27
34
32
32
24
28
28
26
24
28
18
27
30
32
30
22
34
37
32
32
31
22
21
17
21
28
19
23
15
20
23
22
37
25
30
34
26
29
24
17
17
15
17
15
14
14
15
16
16
15
16
16
13
15
18
16
15
16
16
15
15
13
13
17
23
26
23
37
46
24
37
34
43
30
31
35
39
26
34
24
31
24
32
28
30
30
23
23
21
26
22
33
25
20
33
34
25
34
32
21
20
18
17
16
21
38
37
29
34
42
40
34
28
25
31
31
41
32
18
16
18
16
16
13
14
19
16
14
14
15
13
18
17
15
16
16
16
19
15
18
14
17
17
19
25
24
22
30
27
29
29
28
32
39
32
35
35
30
31
31
34
31
30
24
23
23
40
32
18
23
25
33
18
25
15
21
18
20
19
16
14
17
16
19
32
15
28
34
38
22
27
42
30
45
37
35
29
22
16
15
15
15
14
16
13
17
14
15
16
15
17
14
13
18
16
15
15
14
17
17
17
16
15
24
22
28
34
26
35
27
35
23
39
31
27
44
33
31
38
35
30
26
23
31
28
25
28
24
19
29
22
19
18
18
17
21
15
14
18
13
16
20
16
30
24
30
34
28
31
19
27
28
16
27
37
32
21
27
14
17
15
16
16
15
16
14
16
14
17
14
17
17
15
16
16
16
18
15
15
17
15
20
30
27
28
29
27
36
33
27
39
18
34
34
32
30
25
27
30
24
26
26
31
33
26
29
25
21
22
30
28
22
18
14
16
14
19
14
18
16
14
16
15
23
26
35
30
40
25
39
28
25
33
25
25
39
37
23
15
18
16
15
15
18
16
15
16
16
19
16
19
14
16
14
14
15
17
16
16
16
15
16
25
30
27
23
25
30
21
44
41
27
23
32
39
20
32
34
29
29
30
32
25
23
37
28
22
34
30
19
27
24
14
14
16
15
16
16
15
16
16
16
17
19
29
29
28
34
27
31
27
33
29
25
44
43
34
16
21
18
16
15
17
17
29
23
16
16
16
16
14
17
16
16
19
19
21
17
23
16
27
32
23
29
33
19
23
18
18
24
21
36
39
18
33
30
31
33
36
26
40
30
25
21
25
33
32
37
34
30
26
25
16
16
15
15
17
18
14
17
16
14
18
16
21
25
27
25
28
25
23
30
36
37
30
27
21
18
18
16
19
14
24
32
55
60
26
28
17
16
14
15
17
19
22
30
41
46
47
44
34
25
28
38
21
20
18
16
21
16
29
16
18
20
18
34
40
39
37
29
30
30
45
31
30
27
35
32
25
27
29
19
17
14
14
19
16
16
16
18
18
16
17
16
18
18
18
17
23
31
27
27
25
30
24
25
27
16
17
19
18
22
48
184
255
210
79
50
25
21
21
21
18
27
63
169
205
252
190
144
46
52
75
145
73
35
27
18
20
16
21
17
20
21
18
34
32
30
22
21
22
15
20
25
20
18
16
16
18
21
29
24
16
16
16
16
16
16
15
16
16
17
14
18
12
15
18
17
18
27
23
29
21
23
30
22
12
16
18
15
20
111
255
255
255
255
149
86
72
55
46
50
55
98
220
255
255
255
255
182
135
218
255
255
255
160
83
53
43
23
25
25
32
52
53
97
54
41
26
16
17
19
15
16
16
16
18
16
14
16
16
14
16
17
18
15
16
16
15
14
18
14
18
17
16
15
16
18
16
20
18
25
18
16
16
15
14
16
20
18
36
244
255
255
255
255
255
255
255
194
184
206
206
203
254
255
255
255
238
209
179
255
255
255
255
255
255
255
196
122
105
99
144
196
231
171
70
43
16
17
16
17
15
16
16
18
15
14
13
16
17
16
14
15
16
18
15
18
18
16
16
16
16
15
16
15
17
16
14
18
18
21
20
16
13
16
14
16
16
14
27
137
255
255
255
255
255
255
255
255
255
255
255
255
255
255
255
200
153
149
137
197
226
187
157
175
255
255
255
255
255
255
252
181
66
47
25
17
20
14
18
14
15
16
17
14
14
13
17
18
14
16
16
16
16
15
15
15
16
17
16
16
20
21
13
17
17
14
14
17
17
17
18
18
15
17
14
19
16
19
22
82
162
255
255
255
255
255
255
255
255
255
255
255
255
255
202
80
37
43
76
53
83
64
35
29
32
46
61
25
113
121
85
31
24
19
17
16
17
17
16
15
17
15
15
15
15
18
16
14
16
15
16
18
14
15
15
17
16
17
13
16
17
15
16
18
21
18
15
20
15
19
19
21
14
18
13
15
14
13
17
24
40
85
113
125
231
255
255
255
255
255
255
255
255
186
72
29
22
24
35
37
25
27
16
16
19
14
19
59
110
86
20
16
16
15
18
18
15
16
16
15
16
15
16
14
14
14
17
17
17
14
17
20
18
18
15
18
21
17
16
15
17
21
17
17
18
16
16
17
14
16
16
15
16
16
18
16
18
15
19
21
21
21
21
24
30
75
133
167
171
138
150
134
75
46
25
18
25
19
16
15
16
15
16
19
21
17
15
31
29
21
14
20
15
14
21
18
15
16
14
17
15
18
12
16
14
14
14
21
16
14
18
19
18
18
17
20
18
21
17
15
21
20
18
20
21
16
16
16
16
14
16
16
17
15
16
17
14
18
17
14
17
16
18
18
14
21
24
21
22
28
21
27
18
24
18
18
18
15
18
16
15
14
13
18
17
14
17
18
15
16
16
15
20
19
12
16
18
18
14
17
18
16
15
15
14
13
18
16
16
14
15
16
16
16
16
22
27
24
19
18
21
19
14
19
18
19
13
18
18
16
16
16
17
16
19
15
14
14
16
14
17
16
18
20
18
21
20
16
18
21
14
19
20
18
16
16
14
18
12
16
15
16
18
16
19
16
18
16
18
16
18
17
20
14
18
15
16
17
16
21
20
16
17
15
14
15
16
16
18
15
19
16
21
21
16
22
24
17
23
17
26
19
18
16
17
13
15
15
13
15
14
19
15
16
15
18
16
16
17
16
19
16
16
20
15
15
19
15
22
18
25
21
19
16
17
17
15
18
15
14
16
16
17
15
18
14
15
16
16
16
21
18
16
15
16
15
14
16
17
20
16
18
16
15
16
14
13
18
12
13
27
17
29
16
20
24
18
24
21
25
16
21
19
16
13
16
15
17
16
15
16
17
21
16
16
17
16
15
18
20
19
17
16
16
16
16
19
18
25
21
20
17
19
14
19
16
18
17
19
19
17
16
17
12
14
16
15
14
15
14
15
16
18
18
17
17
15
16
16
16
20
20
19
18
16
16
15
16
16
15
15
17
16
19
16
18
19
24
22
23
20
21
21
18
20
17
16
14
14
16
14
15
16
17
16
18
17
17
15
14
17
18
16
18
15
19
19
18
16
17
18
19
19
17
18
17
16
19
18
21
18
16
14
17
17
16
17
16
18
16
19
16
16
16
18
16
20
16
16
17
14
16
14
17
16
15
18
16
17
18
14
18
20
14
19
18
16
19
22
21
21
19
20
17
20
16
14
15
16
17
14
18
19
15
17
16
17
15
17
18
19
17
14
22
17
16
20
18
17
21
15
19
14
17
18
17
17
17
16
16
16
15
16
16
16
14
17
13
16
17
14
16
14
15
12
13
21
19
16
16
16
17
15
16
14
12
15
16
18
13
16
18
20
14
16
14
17
21
18
17
16
24
21
23
17
13
17
16
16
14
16
21
16
19
19
17
19
21
16
17
15
17
17
16
16
16
23
16
19
18
18
19
17
17
18
16
20
13
18
19
17
19
16
19
17
16
18
16
21
14
15
15
16
14
16
21
15
18
23
16
19
15
16
14
15
18
15
14
17
18
20
17
21
20
17
16
21
22
20
15
17
14
19
17
19
15
13
16
18
16
17
15
19
17
16
19
17
15
16
18
16
16
18
17
15
17
16
17
20
30
18
27
18
18
19
20
16
15
16
16
15
15
19
15
17
14
17
17
16
15
17
19
16
16
18
16
18
18
16
17
16
19
18
20
15
19
18
18
17
20
17
17
17
26
19
16
16
18
19
18
16
20
16
17
16
16
15
15
17
18
18
16
16
17
14
16
17
15
19
15
16
18
15
18
21
22
16
18
19
18
15
22
20
18
16
16
16
18
20
20
17
15
16
15
16
17
16
17
16
16
15
18
14
15
17
17
17
18
16
21
20
19
18
21
21
25
19
17
18
18
20
15
17
16
16
16
21
15
17
17
16
25
18
13
12
15
15
19
16
13
16
15
15
16
13
15
17
15
18
16
18
16
22
21
21
16
15
16
17
19
18
20
18
21
25
22
17
17
17
19
15
14
16
18
14
14
16
13
15
16
17
16
16
15
17
15
18
21
21
18
14
18
17
14
16
17
18
20
20
17
21
16
17
19
16
18
18
15
17
16
21
21
17
18
16
16
19
16
15
15
17
15
15
18
15
16
16
21
16
17
14
17
13
16
15
16
18
15
17
21
18
18
16
25
16
21
16
16
15
16
14
14
19
17
15
13
16
18
18
18
14
16
18
15
17
16
16
16
17
21
16
15
19
18
17
18
22
19
19
16
17
18
16
15
19
16
20
17
18
21
18
19
17
19
22
21
18
18
16
16
16
16
13
17
14
17
19
16
15
18
16
18
17
15
15
16
15
17
15
15
16
21
25
14
15
18
14
14
15
16
14
17
14
14
18
14
18
14
17
17
18
15
18
16
17
19
15
17
16
18
21
16
19
16
16
19
18
16
16
20
20
21
27
18
17
16
15
19
17
15
18
27
22
19
16
17
19
19
20
16
17
14
17
18
25
20
17
22
16
15
18
21
17
15
16
16
16
16
18
18
16
22
18
19
16
14
19
17
16
14
16
16
15
16
19
14
18
14
16
14
19
17
18
16
17
17
19
18
18
16
15
16
18
18
20
17
15
19
18
17
18
30
21
16
16
21
18
16
16
19
19
15
19
15
18
18
17
17
19
16
16
19
17
15
13
16
19
21
16
17
18
17
19
14
17
16
14
16
19
23
16
18
19
16
18
16
13
18
19
17
16
15
16
18
20
17
16
13
16
19
18
19
16
16
17
15
16
17
18
19
20
20
18
21
15
18
16
23
19
20
18
19
19
20
15
19
16
16
16
20
20
15
21
18
18
19
25
18
19
15
17
14
15
16
18
18
16
17
20
15
18
16
17
18
15
14
18
17
19
17
20
16
18
16
16
19
15
14
17
20
14
16
21
18
23
15
17
16
17
19
16
14
16
16
16
16
15
18
20
16
15
18
18
18
16
17
15
18
18
15
25
21
26
19
27
17
14
18
21
19
22
21
14
15
22
26
17
18
17
19
21
18
16
15
18
14
18
18
17
15
18
14
16
14
15
14
18
20
21
16
23
16
16
16
16
16
17
21
18
15
16
17
16
20
19
17
16
19
22
17
14
17
17
17
18
16
19
17
16
14
16
15
14
14
18
17
19
20
21
16
26
25
16
20
19
19
16
16
16
24
23
32
18
16
16
21
14
15
18
17
14
14
15
18
18
15
14
18
19
16
14
14
14
17
14
19
16
16
17
20
18
18
18
18
15
15
23
18
18
14
18
17
17
20
14
18
17
15
17
18
16
14
16
14
16
18
18
16
14
16
15
15
14
16
16
18
18
17
17
16
23
24
21
22
23
19
20
21
23
16
21
25
22
17
17
25
17
17
14
18
24
16
19
19
17
16
16
21
18
17
18
16
16
16
14
16
15
15
20
21
15
16
15
18
17
19
16
17
17
16
16
16
19
17
16
18
19
12
16
16
19
16
16
16
17
19
15
16
18
17
18
18
15
16
15
16
19
16
17
20
17
16
16
28
41
24
24
21
18
22
27
19
19
21
15
20
18
17
18
17
17
16
17
17
20
18
21
18
18
21
18
23
19
19
20
20
17
21
32
26
20
16
14
16
15
16
20
18
20
18
16
15
15
14
14
16
15
14
17
16
15
16
15
16
12
16
17
15
15
16
14
16
14
14
15
18
17
16
16
16
21
18
33
27
23
25
18
25
20
24
20
28
20
18
28
16
18
16
14
13
17
23
15
19
20
19
20
17
20
20
18
19
17
21
18
15
16
17
16
17
18
18
17
17
21
21
19
22
20
19
16
17
15
18
14
18
17
19
17
16
18
14
15
16
16
18
14
17
17
16
18
14
18
16
15
14
15
18
17
21
27
22
18
24
18
23
24
20
22
17
23
21
24
24
18
18
15
18
18
16
20
22
21
18
19
16
20
18
18
18
20
22
18
18
16
16
18
17
16
16
18
18
16
16
15
17
14
15
16
16
16
16
16
17
14
15
16
21
16
15
16
19
17
13
13
18
15
15
15
13
14
14
16
14
15
15
17
13
14
21
18
17
29
23
30
18
21
22
23
21
22
21
24
19
16
17
18
17
17
15
17
15
21
19
17
18
21
20
23
19
19
21
18
21
21
19
18
15
18
22
19
17
17
16
16
16
18
21
18
15
16
17
15
15
18
16
17
16
17
18
15
18
17
17
14
15
13
15
16
16
16
17
16
20
16
15
17
15
17
18
27
25
25
21
31
19
19
23
22
25
24
21
28
19
16
15
18
17
18
18
18
19
25
23
15
15
18
19
18
20
19
15
17
16
15
17
16
16
18
19
14
18
18
17
18
19
20
19
18
18
16
15
17
14
16
16
15
16
13
19
13
14
21
16
16
15
14
18
14
15
15
16
18
17
15
17
18
16
16
15
21
21
27
24
21
18
25
27
20
34
27
25
18
18
21
16
19
17
16
18
20
18
20
18
27
21
16
19
20
22
18
19
18
16
15
14
23
16
18
20
19
19
18
16
16
18
16
19
14
16
17
16
17
19
19
15
15
17
16
13
16
18
20
14
13
18
16
19
18
16
16
13
13
13
15
15
35
17
16
17
16
18
18
22
16
17
18
20
26
23
29
20
19
16
22
19
16
16
13
17
18
22
17
16
18
19
21
23
21
18
15
17
15
19
21
20
27
14
18
21
15
16
15
14
17
19
15
17
16
19
16
15
20
17
16
17
16
15
14
16
14
17
15
16
14
18
16
20
16
14
17
17
13
15
13
14
16
20
14
16
15
21
17
25
16
21
24
16
21
20
18
20
17
19
18
19
17
17
17
14
17
17
18
14
17
17
16
15
19
17
15
16
28
18
22
20
18
18
20
14
16
15
16
16
18
14
14
15
18
20
16
18
15
17
16
17
16
16
15
18
15
18
16
16
17
14
15
15
16
15
16
16
14
16
14
16
15
20
16
16
21
19
21
21
16
24
25
19
27
30
21
25
20
17
18
15
17
18
15
21
17
23
14
16
16
14
14
17
18
19
16
23
24
30
21
23
23
18
19
20
16
18
14
21
18
16
19
15
20
21
17
16
16
15
20
19
22
16
15
14
16
15
19
19
16
19
18
19
18
19
19
18
16
15
17
18
21
15
14
17
25
23
14
23
16
18
28
22
25
28
18
25
18
15
18
16
14
16
14
14
18
18
16
20
14
17
18
18
17
20
20
21
17
21
18
16
17
14
16
17
17
16
17
16
17
16
16
20
16
16
20
15
20
16
17
18
16
14
17
17
23
14
19
19
16
16
16
22
17
15
18
15
16
17
14
20
18
15
16
14
14
16
19
19
19
19
20
27
20
25
23
21
17
21
18
16
16
18
14
17
14
18
14
17
14
18
16
14
16
20
16
18
19
20
16
16
17
17
18
17
18
20
18
15
14
17
15
21
17
18
15
17
20
18
12
16
18
16
17
17
16
16
16
14
15
16
19
16
15
14
14
15
18
14
16
18
18
15
17
14
16
22
22
21
23
18
19
21
25
17
25
26
20
17
16
16
15
16
16
19
18
17
18
16
14
16
16
19
17
16
21
15
15
14
14
15
15
16
17
17
16
17
18
16
16
18
18
21
20
13
14
18
20
18
16
14
17
17
18
16
14
15
15
16
16
19
16
18
20
15
15
15
16
17
16
16
15
14
14
15
17
16
24
24
17
16
18
21
21
18
16
22
20
16
17
15
20
16
16
19
18
19
17
19
15
17
15
17
14
19
16
18
15
16
15
15
16
18
17
21
17
17
15
16
16
17
17
20
16
16
16
21
19
19
16
18
18
12
17
17
15
17
20
16
16
17
15
15
15
16
16
19
16
15
16
20
15
14
16
21
14
16
25
18
19
17
17
20
18
22
17
18
16
21
25
16
14
16
15
19
18
15
16
13
17
18
15
17
16
18
16
18
20
16
16
17
15
16
13
15
16
13
14
16
16
13
15
16
18
16
18
18
14
17
17
14
16
16
16
18
16
19
13
14
15
16
14
16
14
14
14
18
16
14
14
14
15
14
16
16
16
19
16
18
16
18
23
16
18
17
21
18
15
20
16
24
26
19
18
16
14
15
13
17
20
18
18
16
16
16
15
15
16
18
15
16
18
16
16
15
16
16
15
15
16
14
16
18
15
17
17
21
21
16
21
18
17
14
17
16
15
16
16
18
15
15
16
16
18
20
18
12
14
17
16
13
18
15
17
15
17
20
14
18
17
21
22
18
18
21
15
21
18
17
19
17
16
18
14
18
22
14
18
17
18
19
15
14
14
14
17
15
16
14
16
16
14
15
16
15
16
14
17
16
14
17
23
14
17
13
19
17
15
16
16
16
16
23
16
15
17
15
17
18
16
14
15
16
17
19
18
16
16
16
15
16
16
16
15
14
15
15
16
16
17
14
18
21
21
20
15
15
16
18
18
15
18
21
19
18
20
17
15
17
15
17
17
15
15
14
17
15
14
15
17
18
17
16
15
15
17
11
17
16
16
16
13
17
18
18
21
21
20
18
19
20
18
15
17
16
16
19
16
14
14
16
18
15
18
15
18
15
14
16
17
14
13
15
18
14
16
15
16
17
15
18
19
24
22
20
18
18
21
16
18
20
19
21
18
21
18
19
19
16
15
18
16
18
14
18
15
19
19
18
18
17
14
15
15
16
14
14
16
16
18
16
14
16
20
18
15
16
16
21
16
18
17
12
18
17
15
16
15
14
17
16
15
20
14
16
17
14
16
15
14
15
18
16
15
16
17
19
18
16
16
23
16
21
17
15
16
18
19
17
21
21
18
22
18
16
16
18
16
16
15
16
14
17
16
16
15
17
17
16
17
19
16
15
16
17
15
14
14
17
19
15
18
20
17
15
18
17
15
21
17
16
18
17
17
20
15
14
16
15
15
14
18
16
15
18
16
14
15
16
15
16
14
16
13
18